perc_pairs_on_same_strand_hq	44.96%
perc_informative_read_pairs	49.19%
perc_pairs_intra_hq_gt10kbp	71.44%
perc_intercontig_pairs_hq_gt10kbp	21.94%
perc_noninformative_read_pairs	38.40%
perc_duplicate_reads	0.00%
perc_zero_dist_pairs	0.16%
perc_unmapped_reads	0.00%
perc_mapq0_reads	23.55%
perc_pairs_greater_10k	39.10%
perc_pairs_greater_10k_on_contigs_greater_10k	74.17%
perc_pairs_on_same_strand	45.60%
perc_intercontig_pairs	47.28%
perc_intercontig_pairs_hq	21.94%
perc_split_reads	18.72%
perc_hq_rp	44.95%
perc_different_ref_stub_pairs	47.28%
proximo_usable_rp_hq_per_ctg_gt_5k	286.75
proximo_usable_rp_per_ctg_gt_5k	474.37
proximo_usable_rp_hq_per_ctg_gt_5k_per_million	143.38
split_reads	374,347
unmapped_reads	0
duplicate_reads	0
mapq0_reads	470,965
pairs_greater_10k_on_contigs_greater_10k	782,000
different_ref_stub_pairs	945,685
pairs_intracontig_hq	701,742
proximo_usable_rp	326,366
pairs_intracontig_hq_gt10kbp	501,351
intercontig_pairs	945,685
pairs_on_same_strand	480,725
proximo_usable_rp_hq	197,287
zero_dist_pairs	3,164
pairs_on_contigs_greater_10k	1,054,316
total_read_pairs	2,000,001
total_read_pairs_hq	899,029
pairs_greater_10k	782,000
informative_pairs	983,865
total_pairs_on_same_contig	1,054,316
pairs_on_same_strand_hq	315,496
intercontig_pairs_hq	197,287
script_dir	/usr/local/bin/hic_qc
outfile_prefix	/scidas/instruction/HORT503-Fall2022/noah.willsea/wa-38-wgaa/04-nuclear_assembly/03-hic_qc_quality_check/WA_38.hap1_vs_HiC
pg_logo	/usr/local/bin/hic_qc/collateral/PGBlueLogoHorSmall.png
bamfile	/scidas/instruction/HORT503-Fall2022/noah.willsea/wa-38-wgaa/04-nuclear_assembly/03-hic_qc_quality_check/WA_38.asm.hic.hap1.p_ctg_vs_HiC.sorted.bam
bamname	WA_38.asm.hic.hap1.p_ctg_vs_HiC.sorted.bam
long_hist	/scidas/instruction/HORT503-Fall2022/noah.willsea/wa-38-wgaa/04-nuclear_assembly/03-hic_qc_quality_check/WA_38.hap1_vs_HiC_long.png
short_hist	/scidas/instruction/HORT503-Fall2022/noah.willsea/wa-38-wgaa/04-nuclear_assembly/03-hic_qc_quality_check/WA_38.hap1_vs_HiC_short.png
log_log_hist	/scidas/instruction/HORT503-Fall2022/noah.willsea/wa-38-wgaa/04-nuclear_assembly/03-hic_qc_quality_check/WA_38.hap1_vs_HiC_log_log.png
log_log_norm_hist	/scidas/instruction/HORT503-Fall2022/noah.willsea/wa-38-wgaa/04-nuclear_assembly/03-hic_qc_quality_check/WA_38.hap1_vs_HiC_log_log_norm.png
contigs_greater_0k	689
contigs_greater_1k	689
contigs_greater_2k	689
contigs_greater_5k	688
contigs_greater_10k	688
contigs_greater_20k	672
contigs_greater_50k	115
N50	34,751,520
contigs	689
total_length	677,948,691
total_reads	4,000,002
judgment	<span class="pass">SUFFICIENT</span>
qc_purpose	Genome Scaffolding
same_strand_threshold	1.5
informative_read_pairs_threshold	5.0
noninformative_read_pairs_threshold	50.0
long_contacts_threshold	3.0
intercontig_hq_contacts_threshold	2.5
usable_hq_gt_5k_threshold	600.0
min_usable_reads_per_contig_per_million_threshold	100.0
high_dupe_threshold	20.0
many_zero_dist_threshold	20.0
many_zero_mapq_threshold	20.0
many_unmapped_threshold	10.0
alignment_command_line	bwa mem -t 24 -5SP WA_38_complete.asm.hic.hap1.p_ctg.fa JNQM_OmniC_NA_NA_CTTGTCGA_Apple_Cosmic_Crisp-Apple_WA38_Cosmic_OmniC_I1161L1_L1_R1.fastq JNQM_OmniC_NA_NA_CTTGTCGA_Apple_Cosmic_Crisp-Apple_WA38_Cosmic_OmniC_I1161L1_L1_R2.fastq
samblaster	samblaster command not found
lib_enzyme	unspecified
ref_assembly	WA_38_complete.asm.hic.hap1.p_ctg.fa
fwd_hic_reads	JNQM_OmniC_NA_NA_CTTGTCGA_Apple_Cosmic_Crisp-Apple_WA38_Cosmic_OmniC_I1161L1_L1_R1.fastq
rev_hic_reads	JNQM_OmniC_NA_NA_CTTGTCGA_Apple_Cosmic_Crisp-Apple_WA38_Cosmic_OmniC_I1161L1_L1_R2.fastq
same_strand_hq_html	<span class="pass">44.96%</span>
informative_read_pairs_html	<span class="pass">49.19%</span>
noninformative_read_pairs_html	<span class="pass">38.40%</span>
long_contacts_html	<span class="pass">71.44%</span>
intercontig_hq_contacts_html	<span class="pass">21.94%</span>
usable_hq_gt_5k_html	<span>286.75</span>
usable_hq_gt_5k_per_million_html	<span class="pass">143.38</span>
high_dupe_html	<span class="pass">0.00%</span>
many_zero_dist_pairs_html	<span class="pass">0.16%</span>
many_unmapped_reads_html	<span class="pass">0.00%</span>
many_zero_mapq_reads_html	<span class="fail">23.55%</span>
version	0+untagged.261.g6881c33
